Unveiling Key Facts about COVID-19 in Germany
…
Death Rate by age group

Let’s calculate the death rate for each age group and depict it.

From this graph we may make a conclusion that the older a person is,
the more likelihood there is that the person dies from coronavirus.
Almost every tenth person aged 80-99 dies from COVID-19 as the diagram
suggests.

For further analysis we would like to create a table with the total
number of cases and deaths among males and females by different age
groups and German States.

## # A tibble: 192 × 5
##    age_group state              gender Cases Deaths
##    <chr>     <chr>              <chr>  <int>  <int>
##  1 00-04     Baden-Wuerttemberg F      58955      4
##  2 00-04     Baden-Wuerttemberg M      62290      4
##  3 00-04     Bayern             F      79856      4
##  4 00-04     Bayern             M      84430      2
##  5 00-04     Berlin             F      16080      0
##  6 00-04     Berlin             M      17152      1
##  7 00-04     Brandenburg        F      11936      0
##  8 00-04     Brandenburg        M      12607      0
##  9 00-04     Bremen             F       2898      0
## 10 00-04     Bremen             M       3107      0
## # … with 182 more rows
…
covid_data_by_age_state <- covid_data_by_age_state %>%
  mutate(gender = recode(gender, "F" = "female", "M" = "male"))

covid_de_data <- covid_de_data %>%
  mutate(gender = recode(gender, "F" = "female", "M" = "male"))

The data in our tables now looks consistent and analyzable. Let’s now
look at the relative number of infected people. For this purpose let’s
join the column “population” from demographics_de
datasetand calculate the percent of infected people by each
age_group.

## # A tibble: 192 × 6
##    age_group state              gender Cases Deaths population
##    <chr>     <chr>              <chr>  <int>  <int>      <dbl>
##  1 00-04     Baden-Wuerttemberg female 58955      4     261674
##  2 00-04     Baden-Wuerttemberg male   62290      4     274882
##  3 00-04     Bayern             female 79856      4     306378
##  4 00-04     Bayern             male   84430      2     321629
##  5 00-04     Berlin             female 16080      0      93990
##  6 00-04     Berlin             male   17152      1      99098
##  7 00-04     Brandenburg        female 11936      0      52945
##  8 00-04     Brandenburg        male   12607      0      55847
##  9 00-04     Bremen             female  2898      0      16202
## 10 00-04     Bremen             male    3107      0      17380
## # … with 182 more rows
…
